\relax 
\@writefile{toc}{\contentsline {section}{\tocsection {}{1}{Categories}}{1}\protected@file@percent }
\@writefile{toc}{\contentsline {subsection}{\tocsubsection {}{1.1}{Exercises}}{2}\protected@file@percent }
\@writefile{toc}{\contentsline {subsubsection}{\tocsubsubsection {}{1.1.1}{}}{2}\protected@file@percent }
\@writefile{toc}{\contentsline {subsubsection}{\tocsubsubsection {}{1.1.2}{}}{3}\protected@file@percent }
\@writefile{toc}{\contentsline {subsubsection}{\tocsubsubsection {}{1.1.3}{}}{3}\protected@file@percent }
\@writefile{toc}{\contentsline {subsubsection}{\tocsubsubsection {}{1.1.4}{}}{4}\protected@file@percent }
\@writefile{toc}{\contentsline {subsubsection}{\tocsubsubsection {}{1.1.5}{}}{4}\protected@file@percent }
\@writefile{toc}{\contentsline {subsubsection}{\tocsubsubsection {}{1.1.6}{}}{4}\protected@file@percent }
\@writefile{toc}{\contentsline {subsubsection}{\tocsubsubsection {}{1.1.7}{}}{4}\protected@file@percent }
\@writefile{toc}{\contentsline {subsubsection}{\tocsubsubsection {}{1.1.8}{}}{4}\protected@file@percent }
\@writefile{toc}{\contentsline {section}{\tocsection {}{2}{Functors}}{5}\protected@file@percent }
\@writefile{toc}{\contentsline {subsection}{\tocsubsection {}{2.1}{Exercises}}{5}\protected@file@percent }
\@writefile{toc}{\contentsline {subsubsection}{\tocsubsubsection {}{2.1.1}{}}{5}\protected@file@percent }
\@writefile{toc}{\contentsline {subsubsection}{\tocsubsubsection {}{2.1.2}{}}{6}\protected@file@percent }
\@writefile{toc}{\contentsline {subsubsection}{\tocsubsubsection {}{2.1.3}{}}{6}\protected@file@percent }
\@writefile{toc}{\contentsline {section}{\tocsection {}{3}{Natural Transformations}}{6}\protected@file@percent }
\newlabel{tocindent-1}{0pt}
\newlabel{tocindent0}{0pt}
\newlabel{tocindent1}{17.77782pt}
\newlabel{tocindent2}{29.38873pt}
\newlabel{tocindent3}{0pt}
\@writefile{toc}{\contentsline {subsection}{\tocsubsection {}{3.1}{Exercises}}{7}\protected@file@percent }
\@writefile{toc}{\contentsline {subsubsection}{\tocsubsubsection {}{3.1.1}{}}{7}\protected@file@percent }
