<?xml version="1.0" encoding="UTF-8" standalone="no"?>
<!-- Created with Inkscape (http://www.inkscape.org/) -->

<svg
   xmlns:dc="http://purl.org/dc/elements/1.1/"
   xmlns:cc="http://creativecommons.org/ns#"
   xmlns:rdf="http://www.w3.org/1999/02/22-rdf-syntax-ns#"
   xmlns:svg="http://www.w3.org/2000/svg"
   xmlns="http://www.w3.org/2000/svg"
   xmlns:sodipodi="http://sodipodi.sourceforge.net/DTD/sodipodi-0.dtd"
   xmlns:inkscape="http://www.inkscape.org/namespaces/inkscape"
   version="1.1"
   id="svg29"
   xml:space="preserve"
   width="6in"
   height="3.5in"
   viewBox="0 0 575.99998 335.99999"
   sodipodi:docname="fig2.svg"
   inkscape:version="0.92.5 (2060ec1f9f, 2020-04-08)"><metadata
     id="metadata35"><rdf:RDF><cc:Work
         rdf:about=""><dc:format>image/svg+xml</dc:format><dc:type
           rdf:resource="http://purl.org/dc/dcmitype/StillImage" /><dc:title></dc:title></cc:Work></rdf:RDF></metadata><defs
     id="defs33"><marker
       inkscape:stockid="Arrow1Lend"
       orient="auto"
       refY="0.0"
       refX="0.0"
       id="Arrow1Lend"
       style="overflow:visible;"
       inkscape:isstock="true"><path
         id="path1245"
         d="M 0.0,0.0 L 5.0,-5.0 L -12.5,0.0 L 5.0,5.0 L 0.0,0.0 z "
         style="fill-rule:evenodd;stroke:none;stroke-width:1pt;stroke-opacity:1;fill:#000000;fill-opacity:1"
         transform="scale(0.8) rotate(180) translate(12.5,0)" /></marker><inkscape:path-effect
       effect="powerstroke"
       id="path-effect1240"
       is_visible="true"
       offset_points="0,0.375"
       sort_points="true"
       interpolator_type="CubicBezierJohan"
       interpolator_beta="0.2"
       start_linecap_type="zerowidth"
       linejoin_type="extrp_arc"
       miter_limit="4"
       end_linecap_type="zerowidth" /><clipPath
       clipPathUnits="userSpaceOnUse"
       id="clipPath235"><path
         d="M 21.968987,17.871153 H 445.10668 V 329.90869 H 21.968987 Z"
         id="path233"
         inkscape:connector-curvature="0" /></clipPath></defs><sodipodi:namedview
     pagecolor="#ffffff"
     bordercolor="#666666"
     borderopacity="1"
     objecttolerance="10"
     gridtolerance="10"
     guidetolerance="10"
     inkscape:pageopacity="0"
     inkscape:pageshadow="2"
     inkscape:window-width="1920"
     inkscape:window-height="1023"
     id="namedview31"
     showgrid="false"
     inkscape:zoom="1.8265622"
     inkscape:cx="193.14295"
     inkscape:cy="138.35733"
     inkscape:window-x="0"
     inkscape:window-y="29"
     inkscape:window-maximized="1"
     inkscape:current-layer="g37"
     units="in" /><g
     id="g37"
     inkscape:groupmode="layer"
     inkscape:label="fig2"
     transform="matrix(1.3333333,0,0,-1.3333333,0,335.99995)"><g
       id="g365"
       transform="matrix(0.71376368,0,0,0.71376368,97.313964,8.2121489)"><path
         inkscape:connector-curvature="0"
         id="path39"
         style="fill:#ffffff;fill-opacity:1;fill-rule:nonzero;stroke:none"
         d="M 0,0 H 452.30668 V 337.10869 H 0 Z" /><path
         inkscape:connector-curvature="0"
         id="path41"
         style="fill:#ffffff;fill-opacity:1;fill-rule:nonzero;stroke:none"
         d="M 21.968987,17.871153 H 445.10668 V 329.90869 H 21.968987 Z" /><path
         inkscape:connector-curvature="0"
         id="path43"
         style="fill:#000000;fill-opacity:1;fill-rule:nonzero;stroke:#000000;stroke-width:0.80000001;stroke-linecap:butt;stroke-linejoin:round;stroke-miterlimit:10;stroke-dasharray:none;stroke-opacity:1"
         d="m 30.10625,23.871875 v -3.5" /><path
         inkscape:connector-curvature="0"
         id="path45"
         style="fill:#000000;fill-opacity:1;fill-rule:nonzero;stroke:#000000;stroke-width:0.80000001;stroke-linecap:butt;stroke-linejoin:round;stroke-miterlimit:10;stroke-dasharray:none;stroke-opacity:1"
         d="m 111.47888,23.871875 v -3.5" /><text
         id="text49"
         style="font-variant:normal;font-weight:normal;font-size:10px;font-family:'DejaVu Sans';-inkscape-font-specification:DejaVuSans;writing-mode:lr-tb;fill:#000000;fill-opacity:1;fill-rule:nonzero;stroke:none"
         transform="matrix(1,0,0,-1,108.2992,9.278125)"><tspan
           id="tspan47"
           y="0"
           x="0">1</tspan></text>
<path
         inkscape:connector-curvature="0"
         id="path51"
         style="fill:#000000;fill-opacity:1;fill-rule:nonzero;stroke:#000000;stroke-width:0.80000001;stroke-linecap:butt;stroke-linejoin:round;stroke-miterlimit:10;stroke-dasharray:none;stroke-opacity:1"
         d="m 192.85152,23.871875 v -3.5" /><text
         id="text55"
         style="font-variant:normal;font-weight:normal;font-size:10px;font-family:'DejaVu Sans';-inkscape-font-specification:DejaVuSans;writing-mode:lr-tb;fill:#000000;fill-opacity:1;fill-rule:nonzero;stroke:none"
         transform="matrix(1,0,0,-1,189.67183,9.278125)"><tspan
           id="tspan53"
           y="0"
           x="0">2</tspan></text>
<path
         inkscape:connector-curvature="0"
         id="path57"
         style="fill:#000000;fill-opacity:1;fill-rule:nonzero;stroke:#000000;stroke-width:0.80000001;stroke-linecap:butt;stroke-linejoin:round;stroke-miterlimit:10;stroke-dasharray:none;stroke-opacity:1"
         d="m 274.22415,23.871875 v -3.5" /><text
         id="text61"
         style="font-variant:normal;font-weight:normal;font-size:10px;font-family:'DejaVu Sans';-inkscape-font-specification:DejaVuSans;writing-mode:lr-tb;fill:#000000;fill-opacity:1;fill-rule:nonzero;stroke:none"
         transform="matrix(1,0,0,-1,271.04446,9.278125)"><tspan
           id="tspan59"
           y="0"
           x="0">3</tspan></text>
<path
         inkscape:connector-curvature="0"
         id="path63"
         style="fill:#000000;fill-opacity:1;fill-rule:nonzero;stroke:#000000;stroke-width:0.80000001;stroke-linecap:butt;stroke-linejoin:round;stroke-miterlimit:10;stroke-dasharray:none;stroke-opacity:1"
         d="m 355.59678,23.871875 v -3.5" /><text
         id="text67"
         style="font-variant:normal;font-weight:normal;font-size:10px;font-family:'DejaVu Sans';-inkscape-font-specification:DejaVuSans;writing-mode:lr-tb;fill:#000000;fill-opacity:1;fill-rule:nonzero;stroke:none"
         transform="matrix(1,0,0,-1,352.4171,9.278125)"><tspan
           id="tspan65"
           y="0"
           x="0">4</tspan></text>
<path
         inkscape:connector-curvature="0"
         id="path69"
         style="fill:#000000;fill-opacity:1;fill-rule:nonzero;stroke:#000000;stroke-width:0.80000001;stroke-linecap:butt;stroke-linejoin:round;stroke-miterlimit:10;stroke-dasharray:none;stroke-opacity:1"
         d="m 436.96942,23.871875 v -3.5" /><text
         id="text73"
         style="font-variant:normal;font-weight:normal;font-size:10px;font-family:'DejaVu Sans';-inkscape-font-specification:DejaVuSans;writing-mode:lr-tb;fill:#000000;fill-opacity:1;fill-rule:nonzero;stroke:none"
         transform="matrix(1,0,0,-1,433.78973,9.278125)"><tspan
           id="tspan71"
           y="0"
           x="0">5</tspan></text>
<path
         inkscape:connector-curvature="0"
         id="path75"
         style="fill:#000000;fill-opacity:1;fill-rule:nonzero;stroke:#000000;stroke-width:0.60000002;stroke-linecap:butt;stroke-linejoin:round;stroke-miterlimit:10;stroke-dasharray:none;stroke-opacity:1"
         d="m 46.380777,23.871875 v -2" /><path
         inkscape:connector-curvature="0"
         id="path77"
         style="fill:#000000;fill-opacity:1;fill-rule:nonzero;stroke:#000000;stroke-width:0.60000002;stroke-linecap:butt;stroke-linejoin:round;stroke-miterlimit:10;stroke-dasharray:none;stroke-opacity:1"
         d="m 62.655303,23.871875 v -2" /><path
         inkscape:connector-curvature="0"
         id="path79"
         style="fill:#000000;fill-opacity:1;fill-rule:nonzero;stroke:#000000;stroke-width:0.60000002;stroke-linecap:butt;stroke-linejoin:round;stroke-miterlimit:10;stroke-dasharray:none;stroke-opacity:1"
         d="m 78.92983,23.871875 v -2" /><path
         inkscape:connector-curvature="0"
         id="path81"
         style="fill:#000000;fill-opacity:1;fill-rule:nonzero;stroke:#000000;stroke-width:0.60000002;stroke-linecap:butt;stroke-linejoin:round;stroke-miterlimit:10;stroke-dasharray:none;stroke-opacity:1"
         d="m 95.204357,23.871875 v -2" /><path
         inkscape:connector-curvature="0"
         id="path83"
         style="fill:#000000;fill-opacity:1;fill-rule:nonzero;stroke:#000000;stroke-width:0.60000002;stroke-linecap:butt;stroke-linejoin:round;stroke-miterlimit:10;stroke-dasharray:none;stroke-opacity:1"
         d="m 127.75341,23.871875 v -2" /><path
         inkscape:connector-curvature="0"
         id="path85"
         style="fill:#000000;fill-opacity:1;fill-rule:nonzero;stroke:#000000;stroke-width:0.60000002;stroke-linecap:butt;stroke-linejoin:round;stroke-miterlimit:10;stroke-dasharray:none;stroke-opacity:1"
         d="m 144.02794,23.871875 v -2" /><path
         inkscape:connector-curvature="0"
         id="path87"
         style="fill:#000000;fill-opacity:1;fill-rule:nonzero;stroke:#000000;stroke-width:0.60000002;stroke-linecap:butt;stroke-linejoin:round;stroke-miterlimit:10;stroke-dasharray:none;stroke-opacity:1"
         d="m 160.30246,23.871875 v -2" /><path
         inkscape:connector-curvature="0"
         id="path89"
         style="fill:#000000;fill-opacity:1;fill-rule:nonzero;stroke:#000000;stroke-width:0.60000002;stroke-linecap:butt;stroke-linejoin:round;stroke-miterlimit:10;stroke-dasharray:none;stroke-opacity:1"
         d="m 176.57699,23.871875 v -2" /><path
         inkscape:connector-curvature="0"
         id="path91"
         style="fill:#000000;fill-opacity:1;fill-rule:nonzero;stroke:#000000;stroke-width:0.60000002;stroke-linecap:butt;stroke-linejoin:round;stroke-miterlimit:10;stroke-dasharray:none;stroke-opacity:1"
         d="m 209.12604,23.871875 v -2" /><path
         inkscape:connector-curvature="0"
         id="path93"
         style="fill:#000000;fill-opacity:1;fill-rule:nonzero;stroke:#000000;stroke-width:0.60000002;stroke-linecap:butt;stroke-linejoin:round;stroke-miterlimit:10;stroke-dasharray:none;stroke-opacity:1"
         d="m 225.40057,23.871875 v -2" /><path
         inkscape:connector-curvature="0"
         id="path95"
         style="fill:#000000;fill-opacity:1;fill-rule:nonzero;stroke:#000000;stroke-width:0.60000002;stroke-linecap:butt;stroke-linejoin:round;stroke-miterlimit:10;stroke-dasharray:none;stroke-opacity:1"
         d="m 241.6751,23.871875 v -2" /><path
         inkscape:connector-curvature="0"
         id="path97"
         style="fill:#000000;fill-opacity:1;fill-rule:nonzero;stroke:#000000;stroke-width:0.60000002;stroke-linecap:butt;stroke-linejoin:round;stroke-miterlimit:10;stroke-dasharray:none;stroke-opacity:1"
         d="m 257.94962,23.871875 v -2" /><path
         inkscape:connector-curvature="0"
         id="path99"
         style="fill:#000000;fill-opacity:1;fill-rule:nonzero;stroke:#000000;stroke-width:0.60000002;stroke-linecap:butt;stroke-linejoin:round;stroke-miterlimit:10;stroke-dasharray:none;stroke-opacity:1"
         d="m 290.49868,23.871875 v -2" /><path
         inkscape:connector-curvature="0"
         id="path101"
         style="fill:#000000;fill-opacity:1;fill-rule:nonzero;stroke:#000000;stroke-width:0.60000002;stroke-linecap:butt;stroke-linejoin:round;stroke-miterlimit:10;stroke-dasharray:none;stroke-opacity:1"
         d="m 306.7732,23.871875 v -2" /><path
         inkscape:connector-curvature="0"
         id="path103"
         style="fill:#000000;fill-opacity:1;fill-rule:nonzero;stroke:#000000;stroke-width:0.60000002;stroke-linecap:butt;stroke-linejoin:round;stroke-miterlimit:10;stroke-dasharray:none;stroke-opacity:1"
         d="m 323.04773,23.871875 v -2" /><path
         inkscape:connector-curvature="0"
         id="path105"
         style="fill:#000000;fill-opacity:1;fill-rule:nonzero;stroke:#000000;stroke-width:0.60000002;stroke-linecap:butt;stroke-linejoin:round;stroke-miterlimit:10;stroke-dasharray:none;stroke-opacity:1"
         d="m 339.32226,23.871875 v -2" /><path
         inkscape:connector-curvature="0"
         id="path107"
         style="fill:#000000;fill-opacity:1;fill-rule:nonzero;stroke:#000000;stroke-width:0.60000002;stroke-linecap:butt;stroke-linejoin:round;stroke-miterlimit:10;stroke-dasharray:none;stroke-opacity:1"
         d="m 371.87131,23.871875 v -2" /><path
         inkscape:connector-curvature="0"
         id="path109"
         style="fill:#000000;fill-opacity:1;fill-rule:nonzero;stroke:#000000;stroke-width:0.60000002;stroke-linecap:butt;stroke-linejoin:round;stroke-miterlimit:10;stroke-dasharray:none;stroke-opacity:1"
         d="m 388.14584,23.871875 v -2" /><path
         inkscape:connector-curvature="0"
         id="path111"
         style="fill:#000000;fill-opacity:1;fill-rule:nonzero;stroke:#000000;stroke-width:0.60000002;stroke-linecap:butt;stroke-linejoin:round;stroke-miterlimit:10;stroke-dasharray:none;stroke-opacity:1"
         d="m 404.42036,23.871875 v -2" /><path
         inkscape:connector-curvature="0"
         id="path113"
         style="fill:#000000;fill-opacity:1;fill-rule:nonzero;stroke:#000000;stroke-width:0.60000002;stroke-linecap:butt;stroke-linejoin:round;stroke-miterlimit:10;stroke-dasharray:none;stroke-opacity:1"
         d="m 420.69489,23.871875 v -2" /><path
         inkscape:connector-curvature="0"
         id="path115"
         style="fill:#000000;fill-opacity:1;fill-rule:nonzero;stroke:#000000;stroke-width:0.80000001;stroke-linecap:butt;stroke-linejoin:round;stroke-miterlimit:10;stroke-dasharray:none;stroke-opacity:1"
         d="m 30.10625,23.871875 h -3.5" /><path
         inkscape:connector-curvature="0"
         id="path117"
         style="fill:#000000;fill-opacity:1;fill-rule:nonzero;stroke:#000000;stroke-width:0.80000001;stroke-linecap:butt;stroke-linejoin:round;stroke-miterlimit:10;stroke-dasharray:none;stroke-opacity:1"
         d="m 30.10625,61.376387 h -3.5" /><text
         id="text121"
         style="font-variant:normal;font-weight:normal;font-size:10px;font-family:'DejaVu Sans';-inkscape-font-specification:DejaVuSans;writing-mode:lr-tb;fill:#000000;fill-opacity:1;fill-rule:nonzero;stroke:none"
         transform="matrix(1,0,0,-1,7.2,57.579512)"><tspan
           id="tspan119"
           sodipodi:role="line"
           y="0"
           x="0 6.3600001 9.54">0.5</tspan></text>
<path
         inkscape:connector-curvature="0"
         id="path123"
         style="fill:#000000;fill-opacity:1;fill-rule:nonzero;stroke:#000000;stroke-width:0.80000001;stroke-linecap:butt;stroke-linejoin:round;stroke-miterlimit:10;stroke-dasharray:none;stroke-opacity:1"
         d="m 30.10625,98.880899 h -3.5" /><text
         id="text127"
         style="font-variant:normal;font-weight:normal;font-size:10px;font-family:'DejaVu Sans';-inkscape-font-specification:DejaVuSans;writing-mode:lr-tb;fill:#000000;fill-opacity:1;fill-rule:nonzero;stroke:none"
         transform="matrix(1,0,0,-1,16.746875,95.084024)"><tspan
           id="tspan125"
           y="0"
           x="0">1</tspan></text>
<path
         inkscape:connector-curvature="0"
         id="path129"
         style="fill:#000000;fill-opacity:1;fill-rule:nonzero;stroke:#000000;stroke-width:0.80000001;stroke-linecap:butt;stroke-linejoin:round;stroke-miterlimit:10;stroke-dasharray:none;stroke-opacity:1"
         d="m 30.10625,136.38541 h -3.5" /><text
         id="text133"
         style="font-variant:normal;font-weight:normal;font-size:10px;font-family:'DejaVu Sans';-inkscape-font-specification:DejaVuSans;writing-mode:lr-tb;fill:#000000;fill-opacity:1;fill-rule:nonzero;stroke:none"
         transform="matrix(1,0,0,-1,7.2,132.58854)"><tspan
           id="tspan131"
           sodipodi:role="line"
           y="0"
           x="0 6.3600001 9.54">1.5</tspan></text>
<path
         inkscape:connector-curvature="0"
         id="path135"
         style="fill:#000000;fill-opacity:1;fill-rule:nonzero;stroke:#000000;stroke-width:0.80000001;stroke-linecap:butt;stroke-linejoin:round;stroke-miterlimit:10;stroke-dasharray:none;stroke-opacity:1"
         d="m 30.10625,173.88992 h -3.5" /><text
         id="text139"
         style="font-variant:normal;font-weight:normal;font-size:10px;font-family:'DejaVu Sans';-inkscape-font-specification:DejaVuSans;writing-mode:lr-tb;fill:#000000;fill-opacity:1;fill-rule:nonzero;stroke:none"
         transform="matrix(1,0,0,-1,16.746875,170.09305)"><tspan
           id="tspan137"
           y="0"
           x="0">2</tspan></text>
<path
         inkscape:connector-curvature="0"
         id="path141"
         style="fill:#000000;fill-opacity:1;fill-rule:nonzero;stroke:#000000;stroke-width:0.80000001;stroke-linecap:butt;stroke-linejoin:round;stroke-miterlimit:10;stroke-dasharray:none;stroke-opacity:1"
         d="m 30.10625,211.39443 h -3.5" /><text
         id="text145"
         style="font-variant:normal;font-weight:normal;font-size:10px;font-family:'DejaVu Sans';-inkscape-font-specification:DejaVuSans;writing-mode:lr-tb;fill:#000000;fill-opacity:1;fill-rule:nonzero;stroke:none"
         transform="matrix(1,0,0,-1,7.2,207.59756)"><tspan
           id="tspan143"
           sodipodi:role="line"
           y="0"
           x="0 6.3600001 9.54">2.5</tspan></text>
<path
         inkscape:connector-curvature="0"
         id="path147"
         style="fill:#000000;fill-opacity:1;fill-rule:nonzero;stroke:#000000;stroke-width:0.80000001;stroke-linecap:butt;stroke-linejoin:round;stroke-miterlimit:10;stroke-dasharray:none;stroke-opacity:1"
         d="m 30.10625,248.89895 h -3.5" /><text
         id="text151"
         style="font-variant:normal;font-weight:normal;font-size:10px;font-family:'DejaVu Sans';-inkscape-font-specification:DejaVuSans;writing-mode:lr-tb;fill:#000000;fill-opacity:1;fill-rule:nonzero;stroke:none"
         transform="matrix(1,0,0,-1,16.746875,245.10207)"><tspan
           id="tspan149"
           y="0"
           x="0">3</tspan></text>
<path
         inkscape:connector-curvature="0"
         id="path153"
         style="fill:#000000;fill-opacity:1;fill-rule:nonzero;stroke:#000000;stroke-width:0.80000001;stroke-linecap:butt;stroke-linejoin:round;stroke-miterlimit:10;stroke-dasharray:none;stroke-opacity:1"
         d="m 30.10625,286.40346 h -3.5" /><text
         id="text157"
         style="font-variant:normal;font-weight:normal;font-size:10px;font-family:'DejaVu Sans';-inkscape-font-specification:DejaVuSans;writing-mode:lr-tb;fill:#000000;fill-opacity:1;fill-rule:nonzero;stroke:none"
         transform="matrix(1,0,0,-1,7.2,282.60658)"><tspan
           id="tspan155"
           sodipodi:role="line"
           y="0"
           x="0 6.3600001 9.54">3.5</tspan></text>
<path
         inkscape:connector-curvature="0"
         id="path159"
         style="fill:#000000;fill-opacity:1;fill-rule:nonzero;stroke:#000000;stroke-width:0.80000001;stroke-linecap:butt;stroke-linejoin:round;stroke-miterlimit:10;stroke-dasharray:none;stroke-opacity:1"
         d="m 30.10625,323.90797 h -3.5" /><text
         id="text163"
         style="font-variant:normal;font-weight:normal;font-size:10px;font-family:'DejaVu Sans';-inkscape-font-specification:DejaVuSans;writing-mode:lr-tb;fill:#000000;fill-opacity:1;fill-rule:nonzero;stroke:none"
         transform="matrix(1,0,0,-1,16.746875,320.11109)"><tspan
           id="tspan161"
           y="0"
           x="0">4</tspan></text>
<path
         inkscape:connector-curvature="0"
         id="path165"
         style="fill:#000000;fill-opacity:1;fill-rule:nonzero;stroke:#000000;stroke-width:0.60000002;stroke-linecap:butt;stroke-linejoin:round;stroke-miterlimit:10;stroke-dasharray:none;stroke-opacity:1"
         d="m 30.10625,31.372777 h -2" /><path
         inkscape:connector-curvature="0"
         id="path167"
         style="fill:#000000;fill-opacity:1;fill-rule:nonzero;stroke:#000000;stroke-width:0.60000002;stroke-linecap:butt;stroke-linejoin:round;stroke-miterlimit:10;stroke-dasharray:none;stroke-opacity:1"
         d="m 30.10625,38.87368 h -2" /><path
         inkscape:connector-curvature="0"
         id="path169"
         style="fill:#000000;fill-opacity:1;fill-rule:nonzero;stroke:#000000;stroke-width:0.60000002;stroke-linecap:butt;stroke-linejoin:round;stroke-miterlimit:10;stroke-dasharray:none;stroke-opacity:1"
         d="m 30.10625,46.374582 h -2" /><path
         inkscape:connector-curvature="0"
         id="path171"
         style="fill:#000000;fill-opacity:1;fill-rule:nonzero;stroke:#000000;stroke-width:0.60000002;stroke-linecap:butt;stroke-linejoin:round;stroke-miterlimit:10;stroke-dasharray:none;stroke-opacity:1"
         d="m 30.10625,53.875484 h -2" /><path
         inkscape:connector-curvature="0"
         id="path173"
         style="fill:#000000;fill-opacity:1;fill-rule:nonzero;stroke:#000000;stroke-width:0.60000002;stroke-linecap:butt;stroke-linejoin:round;stroke-miterlimit:10;stroke-dasharray:none;stroke-opacity:1"
         d="m 30.10625,68.877289 h -2" /><path
         inkscape:connector-curvature="0"
         id="path175"
         style="fill:#000000;fill-opacity:1;fill-rule:nonzero;stroke:#000000;stroke-width:0.60000002;stroke-linecap:butt;stroke-linejoin:round;stroke-miterlimit:10;stroke-dasharray:none;stroke-opacity:1"
         d="m 30.10625,76.378192 h -2" /><path
         inkscape:connector-curvature="0"
         id="path177"
         style="fill:#000000;fill-opacity:1;fill-rule:nonzero;stroke:#000000;stroke-width:0.60000002;stroke-linecap:butt;stroke-linejoin:round;stroke-miterlimit:10;stroke-dasharray:none;stroke-opacity:1"
         d="m 30.10625,83.879094 h -2" /><path
         inkscape:connector-curvature="0"
         id="path179"
         style="fill:#000000;fill-opacity:1;fill-rule:nonzero;stroke:#000000;stroke-width:0.60000002;stroke-linecap:butt;stroke-linejoin:round;stroke-miterlimit:10;stroke-dasharray:none;stroke-opacity:1"
         d="m 30.10625,91.379996 h -2" /><path
         inkscape:connector-curvature="0"
         id="path181"
         style="fill:#000000;fill-opacity:1;fill-rule:nonzero;stroke:#000000;stroke-width:0.60000002;stroke-linecap:butt;stroke-linejoin:round;stroke-miterlimit:10;stroke-dasharray:none;stroke-opacity:1"
         d="m 30.10625,106.3818 h -2" /><path
         inkscape:connector-curvature="0"
         id="path183"
         style="fill:#000000;fill-opacity:1;fill-rule:nonzero;stroke:#000000;stroke-width:0.60000002;stroke-linecap:butt;stroke-linejoin:round;stroke-miterlimit:10;stroke-dasharray:none;stroke-opacity:1"
         d="m 30.10625,113.8827 h -2" /><path
         inkscape:connector-curvature="0"
         id="path185"
         style="fill:#000000;fill-opacity:1;fill-rule:nonzero;stroke:#000000;stroke-width:0.60000002;stroke-linecap:butt;stroke-linejoin:round;stroke-miterlimit:10;stroke-dasharray:none;stroke-opacity:1"
         d="m 30.10625,121.38361 h -2" /><path
         inkscape:connector-curvature="0"
         id="path187"
         style="fill:#000000;fill-opacity:1;fill-rule:nonzero;stroke:#000000;stroke-width:0.60000002;stroke-linecap:butt;stroke-linejoin:round;stroke-miterlimit:10;stroke-dasharray:none;stroke-opacity:1"
         d="m 30.10625,128.88451 h -2" /><path
         inkscape:connector-curvature="0"
         id="path189"
         style="fill:#000000;fill-opacity:1;fill-rule:nonzero;stroke:#000000;stroke-width:0.60000002;stroke-linecap:butt;stroke-linejoin:round;stroke-miterlimit:10;stroke-dasharray:none;stroke-opacity:1"
         d="m 30.10625,143.88631 h -2" /><path
         inkscape:connector-curvature="0"
         id="path191"
         style="fill:#000000;fill-opacity:1;fill-rule:nonzero;stroke:#000000;stroke-width:0.60000002;stroke-linecap:butt;stroke-linejoin:round;stroke-miterlimit:10;stroke-dasharray:none;stroke-opacity:1"
         d="m 30.10625,151.38722 h -2" /><path
         inkscape:connector-curvature="0"
         id="path193"
         style="fill:#000000;fill-opacity:1;fill-rule:nonzero;stroke:#000000;stroke-width:0.60000002;stroke-linecap:butt;stroke-linejoin:round;stroke-miterlimit:10;stroke-dasharray:none;stroke-opacity:1"
         d="m 30.10625,158.88812 h -2" /><path
         inkscape:connector-curvature="0"
         id="path195"
         style="fill:#000000;fill-opacity:1;fill-rule:nonzero;stroke:#000000;stroke-width:0.60000002;stroke-linecap:butt;stroke-linejoin:round;stroke-miterlimit:10;stroke-dasharray:none;stroke-opacity:1"
         d="m 30.10625,166.38902 h -2" /><path
         inkscape:connector-curvature="0"
         id="path197"
         style="fill:#000000;fill-opacity:1;fill-rule:nonzero;stroke:#000000;stroke-width:0.60000002;stroke-linecap:butt;stroke-linejoin:round;stroke-miterlimit:10;stroke-dasharray:none;stroke-opacity:1"
         d="m 30.10625,181.39082 h -2" /><path
         inkscape:connector-curvature="0"
         id="path199"
         style="fill:#000000;fill-opacity:1;fill-rule:nonzero;stroke:#000000;stroke-width:0.60000002;stroke-linecap:butt;stroke-linejoin:round;stroke-miterlimit:10;stroke-dasharray:none;stroke-opacity:1"
         d="m 30.10625,188.89173 h -2" /><path
         inkscape:connector-curvature="0"
         id="path201"
         style="fill:#000000;fill-opacity:1;fill-rule:nonzero;stroke:#000000;stroke-width:0.60000002;stroke-linecap:butt;stroke-linejoin:round;stroke-miterlimit:10;stroke-dasharray:none;stroke-opacity:1"
         d="m 30.10625,196.39263 h -2" /><path
         inkscape:connector-curvature="0"
         id="path203"
         style="fill:#000000;fill-opacity:1;fill-rule:nonzero;stroke:#000000;stroke-width:0.60000002;stroke-linecap:butt;stroke-linejoin:round;stroke-miterlimit:10;stroke-dasharray:none;stroke-opacity:1"
         d="m 30.10625,203.89353 h -2" /><path
         inkscape:connector-curvature="0"
         id="path205"
         style="fill:#000000;fill-opacity:1;fill-rule:nonzero;stroke:#000000;stroke-width:0.60000002;stroke-linecap:butt;stroke-linejoin:round;stroke-miterlimit:10;stroke-dasharray:none;stroke-opacity:1"
         d="m 30.10625,218.89534 h -2" /><path
         inkscape:connector-curvature="0"
         id="path207"
         style="fill:#000000;fill-opacity:1;fill-rule:nonzero;stroke:#000000;stroke-width:0.60000002;stroke-linecap:butt;stroke-linejoin:round;stroke-miterlimit:10;stroke-dasharray:none;stroke-opacity:1"
         d="m 30.10625,226.39624 h -2" /><path
         inkscape:connector-curvature="0"
         id="path209"
         style="fill:#000000;fill-opacity:1;fill-rule:nonzero;stroke:#000000;stroke-width:0.60000002;stroke-linecap:butt;stroke-linejoin:round;stroke-miterlimit:10;stroke-dasharray:none;stroke-opacity:1"
         d="m 30.10625,233.89714 h -2" /><path
         inkscape:connector-curvature="0"
         id="path211"
         style="fill:#000000;fill-opacity:1;fill-rule:nonzero;stroke:#000000;stroke-width:0.60000002;stroke-linecap:butt;stroke-linejoin:round;stroke-miterlimit:10;stroke-dasharray:none;stroke-opacity:1"
         d="m 30.10625,241.39804 h -2" /><path
         inkscape:connector-curvature="0"
         id="path213"
         style="fill:#000000;fill-opacity:1;fill-rule:nonzero;stroke:#000000;stroke-width:0.60000002;stroke-linecap:butt;stroke-linejoin:round;stroke-miterlimit:10;stroke-dasharray:none;stroke-opacity:1"
         d="m 30.10625,256.39985 h -2" /><path
         inkscape:connector-curvature="0"
         id="path215"
         style="fill:#000000;fill-opacity:1;fill-rule:nonzero;stroke:#000000;stroke-width:0.60000002;stroke-linecap:butt;stroke-linejoin:round;stroke-miterlimit:10;stroke-dasharray:none;stroke-opacity:1"
         d="m 30.10625,263.90075 h -2" /><path
         inkscape:connector-curvature="0"
         id="path217"
         style="fill:#000000;fill-opacity:1;fill-rule:nonzero;stroke:#000000;stroke-width:0.60000002;stroke-linecap:butt;stroke-linejoin:round;stroke-miterlimit:10;stroke-dasharray:none;stroke-opacity:1"
         d="m 30.10625,271.40165 h -2" /><path
         inkscape:connector-curvature="0"
         id="path219"
         style="fill:#000000;fill-opacity:1;fill-rule:nonzero;stroke:#000000;stroke-width:0.60000002;stroke-linecap:butt;stroke-linejoin:round;stroke-miterlimit:10;stroke-dasharray:none;stroke-opacity:1"
         d="m 30.10625,278.90255 h -2" /><path
         inkscape:connector-curvature="0"
         id="path221"
         style="fill:#000000;fill-opacity:1;fill-rule:nonzero;stroke:#000000;stroke-width:0.60000002;stroke-linecap:butt;stroke-linejoin:round;stroke-miterlimit:10;stroke-dasharray:none;stroke-opacity:1"
         d="m 30.10625,293.90436 h -2" /><path
         inkscape:connector-curvature="0"
         id="path223"
         style="fill:#000000;fill-opacity:1;fill-rule:nonzero;stroke:#000000;stroke-width:0.60000002;stroke-linecap:butt;stroke-linejoin:round;stroke-miterlimit:10;stroke-dasharray:none;stroke-opacity:1"
         d="m 30.10625,301.40526 h -2" /><path
         inkscape:connector-curvature="0"
         id="path225"
         style="fill:#000000;fill-opacity:1;fill-rule:nonzero;stroke:#000000;stroke-width:0.60000002;stroke-linecap:butt;stroke-linejoin:round;stroke-miterlimit:10;stroke-dasharray:none;stroke-opacity:1"
         d="m 30.10625,308.90616 h -2" /><path
         inkscape:connector-curvature="0"
         id="path227"
         style="fill:#000000;fill-opacity:1;fill-rule:nonzero;stroke:#000000;stroke-width:0.60000002;stroke-linecap:butt;stroke-linejoin:round;stroke-miterlimit:10;stroke-dasharray:none;stroke-opacity:1"
         d="m 30.10625,316.40707 h -2" /><g
         id="g229"><g
           clip-path="url(#clipPath235)"
           id="g231"><path
             inkscape:connector-curvature="0"
             id="path237"
             style="fill:none;stroke:#0000ff;stroke-width:1;stroke-linecap:square;stroke-linejoin:round;stroke-miterlimit:10;stroke-dasharray:none;stroke-opacity:1"
             d="M 30.10625,23.871875 192.82202,173.86274 m 0.0328,-74.978834 0.0983,0.09059 244.01637,224.933484 v 0"
             sodipodi:nodetypes="cccccc" /></g></g><g
         id="g239"><path
           inkscape:connector-curvature="0"
           id="path241"
           style="fill:none;stroke:#000000;stroke-width:0.80000001;stroke-linecap:square;stroke-linejoin:miter;stroke-miterlimit:10;stroke-dasharray:none;stroke-opacity:1"
           d="M 30.10625,17.871153 V 329.90869" /><path
           inkscape:connector-curvature="0"
           id="path243"
           style="fill:none;stroke:#000000;stroke-width:0.80000001;stroke-linecap:square;stroke-linejoin:miter;stroke-miterlimit:10;stroke-dasharray:none;stroke-opacity:1"
           d="M 21.968987,23.871875 H 445.10668" /></g></g><path
       style="fill:none;stroke:#000000;stroke-width:0.75px;stroke-linecap:butt;stroke-linejoin:miter;stroke-opacity:1"
       d="M 234.96673,78.79189 V 25.840516"
       id="path1190"
       inkscape:connector-curvature="0" /><circle
       style="fill:#ffffff;fill-opacity:1;stroke:#0000fe;stroke-width:0.75;stroke-linecap:round;stroke-linejoin:bevel;stroke-miterlimit:4;stroke-dasharray:none;stroke-dashoffset:0;stroke-opacity:1"
       id="path367"
       cx="235.39583"
       cy="-132.61427"
       r="3.2663624"
       transform="scale(1,-1)" /><path
       style="fill:none;stroke:#000000;stroke-width:0.75px;stroke-linecap:butt;stroke-linejoin:miter;stroke-opacity:1"
       d="m 118.80271,78.789745 h 117.2464"
       id="path1178"
       inkscape:connector-curvature="0" /><circle
       transform="scale(1,-1)"
       r="3.2663624"
       cy="-78.900764"
       cx="235.83134"
       id="circle1174"
       style="fill:#0000ff;fill-opacity:1;stroke:#0000fe;stroke-width:0.75;stroke-linecap:round;stroke-linejoin:bevel;stroke-miterlimit:4;stroke-dasharray:none;stroke-dashoffset:0;stroke-opacity:1" /><path
       style="fill:none;stroke:#000000;stroke-width:0.75000002;stroke-linecap:butt;stroke-linejoin:miter;stroke-opacity:1;stroke-miterlimit:4;stroke-dasharray:6.00000015,6.00000015;stroke-dashoffset:0"
       d="M 118.80271,89.497488 H 245.63044"
       id="path1180"
       inkscape:connector-curvature="0" /><path
       style="fill:none;stroke:#000000;stroke-width:0.75000002;stroke-linecap:butt;stroke-linejoin:miter;stroke-opacity:1;stroke-miterlimit:4;stroke-dasharray:6.00000015,6.00000015;stroke-dashoffset:0"
       d="M 118.80271,68.082003 H 247.3725"
       id="path1182"
       inkscape:connector-curvature="0" /><path
       style="fill:none;stroke:#000000;stroke-width:0.75000002;stroke-linecap:butt;stroke-linejoin:miter;stroke-opacity:1;stroke-miterlimit:4;stroke-dasharray:6.00000015,6.00000015;stroke-dashoffset:0"
       d="M 164.915,68.230638 V 24.969489"
       id="path1184"
       inkscape:connector-curvature="0" /><path
       style="fill:none;stroke:#000000;stroke-width:0.75000002;stroke-linecap:butt;stroke-linejoin:miter;stroke-opacity:1;stroke-miterlimit:4;stroke-dasharray:6.00000015,6.00000015;stroke-dashoffset:0"
       d="M 188.49971,25.251024 V 89.716046"
       id="path1186"
       inkscape:connector-curvature="0" /><path
       style="fill:none;stroke:#000000;stroke-width:0.75000002;stroke-linecap:butt;stroke-linejoin:miter;stroke-opacity:1;stroke-miterlimit:4;stroke-dasharray:6.00000015,6.00000015;stroke-dashoffset:0"
       d="M 246.58054,25.251024 V 88.554671"
       id="path1188"
       inkscape:connector-curvature="0" /><path
       style="fill:none;stroke:#ff0000;stroke-width:0.75px;stroke-linecap:butt;stroke-linejoin:miter;stroke-opacity:1"
       d="m 110.91115,86.522266 c 5.78922,4.281803 10.49155,3.127103 16.25922,-0.580687"
       id="path1192"
       inkscape:connector-curvature="0" /><path
       inkscape:connector-curvature="0"
       id="path1194"
       d="m 111.49183,71.756298 c 5.78922,-4.281803 10.49155,-3.127103 16.25922,0.580687"
       style="fill:none;stroke:#ff0000;stroke-width:0.75px;stroke-linecap:butt;stroke-linejoin:miter;stroke-opacity:1" /><path
       style="fill:none;stroke:#ff0000;stroke-width:0.75px;stroke-linecap:butt;stroke-linejoin:miter;stroke-opacity:1"
       d="m 185.75594,17.543497 c 4.2818,5.78922 3.1271,10.49155 -0.58069,16.25922"
       id="path1196"
       inkscape:connector-curvature="0" /><path
       inkscape:connector-curvature="0"
       id="path1198"
       d="m 167.94136,17.398325 c -4.2818,5.78922 -3.1271,10.49155 0.58069,16.25922"
       style="fill:none;stroke:#ff0000;stroke-width:0.75px;stroke-linecap:butt;stroke-linejoin:miter;stroke-opacity:1" /><path
       inkscape:connector-curvature="0"
       id="path1200"
       d="m 243.67943,17.688669 c 4.2818,5.78922 3.1271,10.49155 -0.58069,16.25922"
       style="fill:none;stroke:#ff0000;stroke-width:0.75px;stroke-linecap:butt;stroke-linejoin:miter;stroke-opacity:1" /><circle
       style="fill:#ff0001;fill-opacity:1;stroke:#ff0000;stroke-width:0.75;stroke-linecap:round;stroke-linejoin:bevel;stroke-miterlimit:4;stroke-dasharray:none;stroke-dashoffset:0;stroke-opacity:1"
       id="circle1204"
       cx="235.10548"
       cy="-25.622766"
       r="3.2663624"
       transform="scale(1,-1)" /><path
       style="fill:#ff0000;fill-rule:nonzero;stroke:none;stroke-width:0.75px;stroke-linecap:butt;stroke-linejoin:miter;stroke-opacity:1;fill-opacity:1"
       d="m 148.72836,107.20923 c 0,0 0.37383,0.0297 0.37383,0.0297 0.18689,-2.35563 -0.13209,-5.7973 -2.13131,-10.077956 -1.48006,-3.169044 -3.70605,-6.398657 -6.5426,-9.333769 -2.83638,-2.934951 -5.98114,-5.263241 -9.05671,-6.861729 -4.15098,-2.157418 -7.4737,-2.645363 -9.71773,-2.645363 2.24475,0 5.56257,0.5514 9.64818,2.776087 3.02851,1.649077 6.10431,4.026228 8.854,6.988878 2.75206,2.965196 4.87717,6.193114 6.26707,9.32539 1.87472,4.224842 2.10833,7.539572 1.93144,9.769142 0,0 0.37383,0.0297 0.37383,0.0297 z"
       id="path1238"
       inkscape:connector-curvature="0"
       inkscape:path-effect="#path-effect1240"
       inkscape:original-d="M 148.72836,107.20923 C 149.74569,94.386431 134.23932,78.320073 121.65384,78.320073"
       transform="translate(0.65327244,3.1937764)" /><text
       xml:space="preserve"
       style="font-style:normal;font-variant:normal;font-weight:normal;font-stretch:normal;font-size:13.00000095px;line-height:1.25;font-family:MathJax_SansSerif;-inkscape-font-specification:MathJax_SansSerif;letter-spacing:0px;word-spacing:0px;fill:#000000;fill-opacity:1;stroke:none;stroke-width:0.75"
       x="128.31483"
       y="-148.22926"
       id="text1550"
       transform="scale(1,-1)"><tspan
         sodipodi:role="line"
         x="128.31483"
         y="-148.22926"
         style="stroke-width:0.75"
         id="tspan1552">the preimage of</tspan><tspan
         sodipodi:role="line"
         x="128.31483"
         y="-131.85231"
         style="stroke-width:0.75"
         id="tspan1556">$(1 - \epsilon, 1 + \epsilon)$</tspan><tspan
         sodipodi:role="line"
         x="128.31483"
         y="-115.6023"
         style="stroke-width:0.75"
         id="tspan1558">isn't open</tspan></text>
</g></svg>