<?xml version="1.0" encoding="UTF-8" standalone="no"?>
<!-- Created with Inkscape (http://www.inkscape.org/) -->

<svg
   xmlns:dc="http://purl.org/dc/elements/1.1/"
   xmlns:cc="http://creativecommons.org/ns#"
   xmlns:rdf="http://www.w3.org/1999/02/22-rdf-syntax-ns#"
   xmlns:svg="http://www.w3.org/2000/svg"
   xmlns="http://www.w3.org/2000/svg"
   xmlns:sodipodi="http://sodipodi.sourceforge.net/DTD/sodipodi-0.dtd"
   xmlns:inkscape="http://www.inkscape.org/namespaces/inkscape"
   width="6in"
   height="3.5in"
   viewBox="0 0 152.4 88.900003"
   version="1.1"
   id="svg8"
   inkscape:version="0.92.5 (2060ec1f9f, 2020-04-08)"
   sodipodi:docname="fig3.svg">
  <defs
     id="defs2">
    <marker
       inkscape:stockid="Arrow2Mend"
       orient="auto"
       refY="0.0"
       refX="0.0"
       id="Arrow2Mend"
       style="overflow:visible;"
       inkscape:isstock="true">
      <path
         id="path866"
         style="fill-rule:evenodd;stroke-width:0.625;stroke-linejoin:round;stroke:#000000;stroke-opacity:1;fill:#000000;fill-opacity:1"
         d="M 8.7185878,4.0337352 L -2.2072895,0.016013256 L 8.7185884,-4.0017078 C 6.9730900,-1.6296469 6.9831476,1.6157441 8.7185878,4.0337352 z "
         transform="scale(0.6) rotate(180) translate(0,0)" />
    </marker>
    <marker
       inkscape:stockid="Arrow1Mend"
       orient="auto"
       refY="0.0"
       refX="0.0"
       id="Arrow1Mend"
       style="overflow:visible;"
       inkscape:isstock="true">
      <path
         id="path848"
         d="M 0.0,0.0 L 5.0,-5.0 L -12.5,0.0 L 5.0,5.0 L 0.0,0.0 z "
         style="fill-rule:evenodd;stroke:#000000;stroke-width:1pt;stroke-opacity:1;fill:#000000;fill-opacity:1"
         transform="scale(0.4) rotate(180) translate(10,0)" />
    </marker>
    <marker
       inkscape:stockid="Arrow1Lend"
       orient="auto"
       refY="0.0"
       refX="0.0"
       id="Arrow1Lend"
       style="overflow:visible;"
       inkscape:isstock="true">
      <path
         id="path842"
         d="M 0.0,0.0 L 5.0,-5.0 L -12.5,0.0 L 5.0,5.0 L 0.0,0.0 z "
         style="fill-rule:evenodd;stroke:#000000;stroke-width:1pt;stroke-opacity:1;fill:#000000;fill-opacity:1"
         transform="scale(0.8) rotate(180) translate(12.5,0)" />
    </marker>
  </defs>
  <sodipodi:namedview
     id="base"
     pagecolor="#ffffff"
     bordercolor="#666666"
     borderopacity="1.0"
     inkscape:pageopacity="0.0"
     inkscape:pageshadow="2"
     inkscape:zoom="1.979899"
     inkscape:cx="238.76726"
     inkscape:cy="160.84106"
     inkscape:document-units="mm"
     inkscape:current-layer="layer1"
     showgrid="false"
     units="in"
     inkscape:window-width="1920"
     inkscape:window-height="1023"
     inkscape:window-x="0"
     inkscape:window-y="29"
     inkscape:window-maximized="1" />
  <metadata
     id="metadata5">
    <rdf:RDF>
      <cc:Work
         rdf:about="">
        <dc:format>image/svg+xml</dc:format>
        <dc:type
           rdf:resource="http://purl.org/dc/dcmitype/StillImage" />
        <dc:title></dc:title>
      </cc:Work>
    </rdf:RDF>
  </metadata>
  <g
     inkscape:label="Layer 1"
     inkscape:groupmode="layer"
     id="layer1"
     transform="translate(0,-208.09998)">
    <path
       style="fill:none;stroke:#000000;stroke-width:0.26458332px;stroke-linecap:butt;stroke-linejoin:miter;stroke-opacity:1"
       d="M 12.828937,276.01932 55.324792,233.92437"
       id="path18"
       inkscape:connector-curvature="0" />
    <path
       style="fill:none;stroke:#000000;stroke-width:0.26458332;stroke-linecap:butt;stroke-linejoin:miter;stroke-opacity:1;stroke-miterlimit:4;stroke-dasharray:0.26458332,0.26458332;stroke-dashoffset:0"
       d="m 50.246671,236.06253 c 2.686733,-0.98945 3.545626,0.16807 3.875408,2.80633"
       id="path26"
       inkscape:connector-curvature="0" />
    <path
       style="fill:none;stroke:#000000;stroke-width:1.76388889;stroke-linecap:butt;stroke-linejoin:miter;stroke-opacity:1;stroke-miterlimit:4;stroke-dasharray:none;marker-end:url(#Arrow2Mend)"
       d="m 51.04848,259.18134 c 6.719242,-9.75087 11.332168,1.44327 17.639787,-0.13363 4.301347,-1.07534 9.339908,-4.83177 13.630745,-6.54811"
       id="path32"
       inkscape:connector-curvature="0" />
    <path
       style="fill:none;stroke:#000000;stroke-width:0.26458332px;stroke-linecap:butt;stroke-linejoin:miter;stroke-opacity:1"
       d="m 135.90655,232.45439 c -4.60348,-6.83624 -13.36929,-1.56585 -18.8425,2.53906 -8.23397,6.17548 -19.28328,21.34169 -9.88897,30.73599 2.37603,2.37603 6.51579,2.62962 8.55262,5.34539 2.75137,3.6685 2.04822,8.78585 6.01357,11.75987 7.90764,5.93073 20.57975,-11.43684 20.57975,-18.17433 0,-7.41561 -11.33796,-11.84382 -9.75534,-18.17433 2.18759,-8.75037 5.44993,-7.06542 3.74178,-13.89802"
       id="path1179"
       inkscape:connector-curvature="0" />
    <path
       style="fill:none;stroke:#000000;stroke-width:0.26458332;stroke-linecap:butt;stroke-linejoin:miter;stroke-opacity:1;stroke-miterlimit:4;stroke-dasharray:0.26458332,1.05833327;stroke-dashoffset:0"
       d="m 111.65184,248.69101 c -3.81452,13.89729 12.8546,1.4494 6.08039,-1.9377 -1.91542,-0.95771 -5.61356,0.23694 -6.08039,1.9377 z"
       id="path1185"
       inkscape:connector-curvature="0"
       sodipodi:nodetypes="sss" />
    <path
       style="fill:none;stroke:#000000;stroke-width:0.26458332;stroke-linecap:butt;stroke-linejoin:miter;stroke-opacity:1;stroke-miterlimit:4;stroke-dasharray:0.26458332,1.05833327;stroke-dashoffset:0"
       d="m 124.28033,262.8563 c -0.42683,2.07105 0.60174,5.13134 3.14042,3.60814 6.20198,-3.7212 -0.36105,-17.09395 -3.14042,-3.60814 z"
       id="path1187"
       inkscape:connector-curvature="0"
       sodipodi:nodetypes="scs" />
    <path
       style="fill:none;stroke:#000000;stroke-width:0.26458332;stroke-linecap:butt;stroke-linejoin:miter;stroke-opacity:1;stroke-miterlimit:4;stroke-dasharray:0.26458332,1.05833327;stroke-dashoffset:0"
       d="m 122.81035,238.80204 c -0.68154,1.57392 1.51387,4.34313 3.74177,4.34313 6.76626,0 1.24986,-15.87057 -3.74177,-4.34313 z"
       id="path1189"
       inkscape:connector-curvature="0"
       sodipodi:nodetypes="sss" />
    <path
       inkscape:connector-curvature="0"
       id="path1191"
       d="m 30.591909,255.05583 c 2.686733,-0.98945 3.545626,0.16807 3.875408,2.80633"
       style="fill:none;stroke:#000000;stroke-width:0.26458332;stroke-linecap:butt;stroke-linejoin:miter;stroke-miterlimit:4;stroke-dasharray:0.26458332, 0.26458332;stroke-dashoffset:0;stroke-opacity:1" />
    <path
       style="fill:none;stroke:#000000;stroke-width:0.26458332;stroke-linecap:butt;stroke-linejoin:miter;stroke-miterlimit:4;stroke-dasharray:0.26458332, 0.26458332;stroke-dashoffset:0;stroke-opacity:1"
       d="m 27.002288,265.35455 c -2.68673,0.98945 -3.54563,-0.16807 -3.87541,-2.80633"
       id="path1193"
       inkscape:connector-curvature="0" />
    <path
       inkscape:connector-curvature="0"
       id="path1195"
       d="m 46.562556,245.60529 c -2.68673,0.98945 -3.54563,-0.16807 -3.87541,-2.80633"
       style="fill:none;stroke:#000000;stroke-width:0.26458332;stroke-linecap:butt;stroke-linejoin:miter;stroke-miterlimit:4;stroke-dasharray:0.26458332, 0.26458332;stroke-dashoffset:0;stroke-opacity:1" />
    <text
       xml:space="preserve"
       style="font-style:normal;font-variant:normal;font-weight:normal;font-stretch:normal;font-size:4.58611107px;line-height:1.25;font-family:MathJax_SansSerif;-inkscape-font-specification:MathJax_SansSerif;letter-spacing:0px;word-spacing:0px;fill:#000000;fill-opacity:1;stroke:none;stroke-width:0.26458332"
       x="12.027128"
       y="220.15999"
       id="text1199"><tspan
         sodipodi:role="line"
         id="tspan1197"
         x="12.027128"
         y="220.15999"
         style="stroke-width:0.26458332">our highly structured example</tspan><tspan
         sodipodi:role="line"
         x="12.027128"
         y="225.93741"
         style="stroke-width:0.26458332"
         id="tspan1201">of $\rr$: a set with subsets labeled</tspan><tspan
         sodipodi:role="line"
         x="12.027128"
         y="231.71484"
         style="stroke-width:0.26458332"
         id="tspan1203">as \emph{open} sets</tspan></text>
    <text
       xml:space="preserve"
       style="font-style:normal;font-variant:normal;font-weight:normal;font-stretch:normal;font-size:4.58611107px;line-height:1.25;font-family:MathJax_SansSerif;-inkscape-font-specification:MathJax_SansSerif;letter-spacing:0px;word-spacing:0px;fill:#000000;fill-opacity:1;stroke:none;stroke-width:0.26458332"
       x="88.065308"
       y="216.41823"
       id="text1207"><tspan
         sodipodi:role="line"
         id="tspan1205"
         x="88.065308"
         y="216.41823"
         style="stroke-width:0.26458332">abstracting away the </tspan><tspan
         sodipodi:role="line"
         x="88.065308"
         y="222.15086"
         style="stroke-width:0.26458332"
         id="tspan1209">unnecessary structure</tspan><tspan
         sodipodi:role="line"
         x="88.065308"
         y="227.8835"
         style="stroke-width:0.26458332"
         id="tspan1211">to get a general space where</tspan><tspan
         sodipodi:role="line"
         x="88.065308"
         y="233.61615"
         style="stroke-width:0.26458332"
         id="tspan1213">we can define</tspan><tspan
         sodipodi:role="line"
         x="88.065308"
         y="239.34879"
         style="stroke-width:0.26458332"
         id="tspan1215">continuity</tspan></text>
  </g>
</svg>
