<?xml version="1.0" encoding="UTF-8" standalone="no"?>
<!-- Created with Inkscape (http://www.inkscape.org/) -->

<svg
   xmlns:dc="http://purl.org/dc/elements/1.1/"
   xmlns:cc="http://creativecommons.org/ns#"
   xmlns:rdf="http://www.w3.org/1999/02/22-rdf-syntax-ns#"
   xmlns:svg="http://www.w3.org/2000/svg"
   xmlns="http://www.w3.org/2000/svg"
   xmlns:sodipodi="http://sodipodi.sourceforge.net/DTD/sodipodi-0.dtd"
   xmlns:inkscape="http://www.inkscape.org/namespaces/inkscape"
   width="6in"
   height="3.5in"
   viewBox="0 0 152.4 88.900003"
   version="1.1"
   id="svg8"
   inkscape:version="0.92.5 (2060ec1f9f, 2020-04-08)"
   sodipodi:docname="fig5.svg">
  <defs
     id="defs2" />
  <sodipodi:namedview
     id="base"
     pagecolor="#ffffff"
     bordercolor="#666666"
     borderopacity="1.0"
     inkscape:pageopacity="0.0"
     inkscape:pageshadow="2"
     inkscape:zoom="1.979899"
     inkscape:cx="244.08988"
     inkscape:cy="155.93898"
     inkscape:document-units="mm"
     inkscape:current-layer="layer1"
     showgrid="false"
     units="in"
     inkscape:window-width="1920"
     inkscape:window-height="1023"
     inkscape:window-x="0"
     inkscape:window-y="29"
     inkscape:window-maximized="1" />
  <metadata
     id="metadata5">
    <rdf:RDF>
      <cc:Work
         rdf:about="">
        <dc:format>image/svg+xml</dc:format>
        <dc:type
           rdf:resource="http://purl.org/dc/dcmitype/StillImage" />
        <dc:title></dc:title>
      </cc:Work>
    </rdf:RDF>
  </metadata>
  <g
     inkscape:label="Layer 1"
     inkscape:groupmode="layer"
     id="layer1"
     transform="translate(0,-208.09998)">
    <path
       style="fill:none;stroke:#00fe00;stroke-width:0.35277779;stroke-linecap:butt;stroke-linejoin:miter;stroke-opacity:1;stroke-miterlimit:4;stroke-dasharray:0.35277779,1.41111115;stroke-dashoffset:0"
       d="m 124.28033,230.71714 c -8.4613,-12.23893 -21.99084,-14.92973 -36.348656,-7.75082 -5.212318,2.60616 -18.715595,15.49939 -24.722431,13.49711 -13.22125,-4.40708 -23.19882,-13.34347 -38.085908,-9.6217 -9.941798,2.48545 -16.1602792,34.63046 -12.428033,42.09495 2.357918,4.71583 11.449981,5.38025 15.501632,8.41899 22.405366,16.80402 18.229974,0.13363 40.224064,0.13363 13.850035,0 22.817656,12.01051 40.357702,9.08717 16.46671,-2.74445 42.44044,-34.05404 34.47776,-49.9794 -2.64409,-5.2882 -16.47249,-3.95405 -18.97613,-5.87993 z"
       id="path10"
       inkscape:connector-curvature="0" />
    <path
       style="fill:none;stroke:#fc0000;stroke-width:0.35277778;stroke-linecap:butt;stroke-linejoin:miter;stroke-opacity:1;stroke-miterlimit:4;stroke-dasharray:0.35277778, 1.41111111000000000;stroke-dashoffset:0"
       d="m 39.154986,247.42148 c -10.181041,4.16386 -5.630839,27.71906 5.879928,20.04522 14.919994,-9.94667 13.81554,-28.10031 -5.879928,-20.04522 z"
       id="path14"
       inkscape:connector-curvature="0"
       sodipodi:nodetypes="sss" />
    <path
       style="fill:none;stroke:#00fe00;stroke-width:0.35277779;stroke-linecap:butt;stroke-linejoin:miter;stroke-opacity:1;stroke-miterlimit:4;stroke-dasharray:0.35277779,1.41111115;stroke-dashoffset:0"
       d="m 76.03818,252.4996 c -3.737976,35.42363 45.85969,27.34919 60.53655,-2.00452 3.74619,-7.49239 -13.56759,-13.87696 -17.63979,-15.23436 -23.820313,-7.94011 -40.768682,-2.92825 -42.89676,17.23888 z"
       id="path18"
       inkscape:connector-curvature="0"
       sodipodi:nodetypes="ssss" />
    <path
       style="fill:none;stroke:#fc0000;stroke-width:0.35277778;stroke-linecap:butt;stroke-linejoin:miter;stroke-opacity:1;stroke-miterlimit:4;stroke-dasharray:0.35277778, 1.41111111000000000;stroke-dashoffset:0"
       d="m 97.820645,255.5732 c -3.013324,4.45154 -0.40817,10.37655 4.944485,12.16077 12.64663,4.21554 9.85493,-34.02374 -4.944485,-12.16077 z"
       id="path20"
       inkscape:connector-curvature="0"
       sodipodi:nodetypes="sss" />
    <path
       style="fill:none;stroke:#fc0000;stroke-width:0.35277778;stroke-linecap:butt;stroke-linejoin:miter;stroke-opacity:1;stroke-miterlimit:4;stroke-dasharray:0.35277778, 1.41111111000000000;stroke-dashoffset:0"
       d="m 116.12861,247.95602 c -2.02161,2.90018 2.86226,8.55263 7.21628,8.55263 11.76796,0 3.04138,-23.26815 -7.21628,-8.55263 z"
       id="path22"
       inkscape:connector-curvature="0"
       sodipodi:nodetypes="sss" />
    <path
       style="fill:none;stroke:#fc0000;stroke-width:0.35277778;stroke-linecap:butt;stroke-linejoin:miter;stroke-opacity:1;stroke-miterlimit:4;stroke-dasharray:0.35277778, 1.41111111000000000;stroke-dashoffset:0"
       d="m 92.87616,245.01606 c 0.317383,2.85328 3.498704,1.67657 6.013564,0 10.212136,-6.80809 -7.0759,-9.55043 -6.013564,0 z"
       id="path24"
       inkscape:connector-curvature="0"
       sodipodi:nodetypes="sss" />
    <path
       style="fill:none;stroke:#00fe00;stroke-width:0.35277779;stroke-linecap:butt;stroke-linejoin:miter;stroke-opacity:1;stroke-miterlimit:4;stroke-dasharray:0.35277779,1.41111115;stroke-dashoffset:0"
       d="m 70.425521,244.34788 c -7.342381,-2.61336 -13.491403,-7.88331 -20.847023,-9.35443 -30.123109,-6.02462 -42.4415032,31.55139 -15.768902,38.21954 5.166666,1.29167 18.871339,5.53142 23.786986,3.0736 7.970133,-3.98507 22.099049,-28.63921 12.828939,-31.93871 z"
       id="path28"
       inkscape:connector-curvature="0"
       sodipodi:nodetypes="sssss" />
    <path
       style="fill:none;stroke:#fc0000;stroke-width:0.35277778;stroke-linecap:butt;stroke-linejoin:miter;stroke-opacity:1;stroke-miterlimit:4;stroke-dasharray:0.35277778, 1.41111111000000000;stroke-dashoffset:0"
       d="m 61.872894,249.69327 c -2.440376,0.54064 -3.997685,4.0859 -4.543581,6.81538 -3.468833,17.34416 16.382427,-9.43815 4.543581,-6.81538 z"
       id="path34"
       inkscape:connector-curvature="0"
       sodipodi:nodetypes="sss" />
    <path
       inkscape:connector-curvature="0"
       id="path841"
       d="m 124.28033,230.71714 c -8.4613,-12.23893 -21.99084,-14.92973 -36.348656,-7.75082 -5.212318,2.60616 -18.715595,15.49939 -24.722431,13.49711 -13.22125,-4.40708 -23.19882,-13.34347 -38.085908,-9.6217 -9.941798,2.48545 -16.1602792,34.63046 -12.428033,42.09495 2.357918,4.71583 11.449981,5.38025 15.501632,8.41899 22.405366,16.80402 18.229974,0.13363 40.224064,0.13363 13.850035,0 22.817656,12.01051 40.357702,9.08717 16.46671,-2.74445 42.44044,-34.05404 34.47776,-49.9794 -2.64409,-5.2882 -16.47249,-3.95405 -18.97613,-5.87993 z"
       style="fill:none;stroke:#f80000;stroke-width:0.35277779;stroke-linecap:butt;stroke-linejoin:miter;stroke-opacity:1;stroke-miterlimit:4;stroke-dasharray:0.35277779,1.41111115;stroke-dashoffset:0.74083335" />
    <path
       sodipodi:nodetypes="ssss"
       inkscape:connector-curvature="0"
       id="path843"
       d="m 76.03818,252.4996 c -3.737976,35.42363 45.85969,27.34919 60.53655,-2.00452 3.74619,-7.49239 -13.56759,-13.87696 -17.63979,-15.23436 -23.820313,-7.94011 -40.768682,-2.92825 -42.89676,17.23888 z"
       style="fill:none;stroke:#f80000;stroke-width:0.35277779;stroke-linecap:butt;stroke-linejoin:miter;stroke-opacity:1;stroke-miterlimit:4;stroke-dasharray:0.35277779,1.41111115;stroke-dashoffset:0.74083335" />
    <path
       sodipodi:nodetypes="sssss"
       inkscape:connector-curvature="0"
       id="path845"
       d="m 70.425521,244.34788 c -7.342381,-2.61336 -13.491403,-7.88331 -20.847023,-9.35443 -30.123109,-6.02462 -42.4415032,31.55139 -15.768902,38.21954 5.166666,1.29167 18.871339,5.53142 23.786986,3.0736 7.970133,-3.98507 22.099049,-28.63921 12.828939,-31.93871 z"
       style="fill:none;stroke:#f80000;stroke-width:0.35277779;stroke-linecap:butt;stroke-linejoin:miter;stroke-opacity:1;stroke-miterlimit:4;stroke-dasharray:0.35277779,1.41111115;stroke-dashoffset:0.74083335" />
  </g>
</svg>
