<?xml version="1.0" encoding="UTF-8" standalone="no"?>
<!-- Created with Inkscape (http://www.inkscape.org/) -->

<svg
   xmlns:dc="http://purl.org/dc/elements/1.1/"
   xmlns:cc="http://creativecommons.org/ns#"
   xmlns:rdf="http://www.w3.org/1999/02/22-rdf-syntax-ns#"
   xmlns:svg="http://www.w3.org/2000/svg"
   xmlns="http://www.w3.org/2000/svg"
   xmlns:sodipodi="http://sodipodi.sourceforge.net/DTD/sodipodi-0.dtd"
   xmlns:inkscape="http://www.inkscape.org/namespaces/inkscape"
   width="32"
   height="32"
   viewBox="0 0 8.4666667 8.4666667"
   version="1.1"
   id="svg8"
   inkscape:version="0.92.5 (2060ec1f9f, 2020-04-08)"
   sodipodi:docname="orange.svg">
  <defs
     id="defs2" />
  <sodipodi:namedview
     id="base"
     pagecolor="#ffffff"
     bordercolor="#666666"
     borderopacity="1.0"
     inkscape:pageopacity="0.0"
     inkscape:pageshadow="2"
     inkscape:zoom="22.4"
     inkscape:cx="12.423857"
     inkscape:cy="15.954507"
     inkscape:document-units="mm"
     inkscape:current-layer="layer1"
     showgrid="false"
     units="px"
     inkscape:window-width="1920"
     inkscape:window-height="1023"
     inkscape:window-x="0"
     inkscape:window-y="29"
     inkscape:window-maximized="1" />
  <metadata
     id="metadata5">
    <rdf:RDF>
      <cc:Work
         rdf:about="">
        <dc:format>image/svg+xml</dc:format>
        <dc:type
           rdf:resource="http://purl.org/dc/dcmitype/StillImage" />
        <dc:title></dc:title>
      </cc:Work>
    </rdf:RDF>
  </metadata>
  <g
     inkscape:label="Layer 1"
     inkscape:groupmode="layer"
     id="layer1"
     transform="translate(0,-288.53333)">
    <path
       style="fill:none;stroke:#000000;stroke-width:0.26458332px;stroke-linecap:butt;stroke-linejoin:miter;stroke-opacity:1"
       d="m 7.6540176,291.40122 c -0.2075505,-1.49093 -1.5249432,-1.97138 -2.9175034,-2.12611 -3.0447921,-0.33831 -5.8061518,4.18555 -3.0946802,6.35472 3.1347545,2.50781 7.1942396,-1.43466 6.0121836,-4.22861 z"
       id="path914"
       inkscape:connector-curvature="0" />
    <path
       style="fill:none;stroke:#000000;stroke-width:0.26458332px;stroke-linecap:butt;stroke-linejoin:miter;stroke-opacity:1"
       d="m 4.0986792,289.33417 c -3.0674163,1.16696 -0.5114613,1.34608 -0.2007997,0.0591"
       id="path916"
       inkscape:connector-curvature="0" />
    <path
       style="fill:none;stroke:#000000;stroke-width:0.26458332px;stroke-linecap:butt;stroke-linejoin:miter;stroke-opacity:1"
       d="m 3.8978795,289.39327 c 1.1881498,0.56942 2.3168998,0.72462 0.2007997,-0.0591"
       id="path918"
       inkscape:connector-curvature="0" />
    <path
       style="fill:none;stroke:#000000;stroke-width:0.26458332px;stroke-linecap:butt;stroke-linejoin:miter;stroke-opacity:1"
       d="m 3.4490326,289.72395 c 0.243133,0.36191 0.8494998,0.1012 1.2874816,-0.0709"
       id="path920"
       inkscape:connector-curvature="0" />
    <path
       style="fill:#ffb200;fill-opacity:1;stroke:none;stroke-width:0.00892857;stroke-linecap:round;stroke-linejoin:bevel;stroke-miterlimit:4;stroke-dasharray:none;stroke-dashoffset:0;stroke-opacity:1"
       d="M 13.455107,29.284706 C 11.97489,29.115975 11.031633,28.883695 9.8565503,28.398551 8.2602958,27.739522 6.6593258,26.655581 5.4630786,25.423937 4.5998723,24.535189 4.0791007,23.79835 3.5680082,22.742605 2.8714735,21.303798 2.5686736,19.934152 2.5680672,18.2196 2.5675281,16.69523 2.785133,15.434348 3.3158494,13.886681 4.3634723,10.831618 6.4320564,7.9952818 9.0737106,5.9917974 9.2911744,5.8268682 9.4770874,5.699914 9.4868503,5.709677 c 0.00976,0.00976 -0.015771,0.084948 -0.056743,0.1670784 -0.2042339,0.4093966 -0.075968,0.8524343 0.3162451,1.0923256 0.2152473,0.1316531 0.2319504,0.1344237 0.8035716,0.133292 0.475444,-9.41e-4 0.648573,-0.020186 0.933103,-0.1037236 0.766022,-0.2249025 1.526279,-0.62048 2.126921,-1.1066811 L 13.862427,5.687595 14.551624,5.677367 c 0.631687,-0.00937 0.739488,-0.02362 1.291876,-0.1707137 0.331473,-0.088267 0.821476,-0.2422002 1.088895,-0.3420732 0.26742,-0.099873 0.519611,-0.1815872 0.560425,-0.1815872 0.04082,0 0.283999,0.070651 0.540411,0.1570014 0.838791,0.2824764 1.538548,0.4373234 1.859759,0.4115397 C 20.211526,5.525965 20.326431,5.45305 20.428521,5.2117015 20.533839,4.9627213 20.469664,4.7474772 20.225804,4.5317909 20.003812,4.3354458 19.211457,3.9351726 18.325143,3.5716352 18.017445,3.4454276 17.831036,3.3479122 17.882734,3.3401988 c 0.134479,-0.020065 1.600158,0.1990432 2.340953,0.3499545 4.719909,0.9615172 7.424608,3.188079 8.078018,6.6499827 0.0533,0.282366 0.173406,0.726166 0.266913,0.986222 0.655445,1.822881 0.793925,3.694728 0.416993,5.636535 -0.949793,4.892955 -4.9361,9.524767 -9.845079,11.439297 -1.594078,0.6217 -3.157479,0.918114 -4.770246,0.904417 -0.429688,-0.0037 -0.841518,-0.0135 -0.915179,-0.0219 z"
       id="path922"
       inkscape:connector-curvature="0"
       transform="matrix(0.26458333,0,0,0.26458333,0,288.53333)" />
  </g>
</svg>
