\relax 
\providecommand\hyper@newdestlabel[2]{}
\providecommand\HyperFirstAtBeginDocument{\AtBeginDocument}
\HyperFirstAtBeginDocument{\ifx\hyper@anchor\@undefined
\global\let\oldcontentsline\contentsline
\gdef\contentsline#1#2#3#4{\oldcontentsline{#1}{#2}{#3}}
\global\let\oldnewlabel\newlabel
\gdef\newlabel#1#2{\newlabelxx{#1}#2}
\gdef\newlabelxx#1#2#3#4#5#6{\oldnewlabel{#1}{{#2}{#3}}}
\AtEndDocument{\ifx\hyper@anchor\@undefined
\let\contentsline\oldcontentsline
\let\newlabel\oldnewlabel
\fi}
\fi}
\global\let\hyper@last\relax 
\gdef\HyperFirstAtBeginDocument#1{#1}
\providecommand\HyField@AuxAddToFields[1]{}
\providecommand\HyField@AuxAddToCoFields[2]{}
\@ifundefined{amsrefs@bibcite}{}{\let\bibcite\amsrefs@bibcite}
\bibstyle{amsrn}
\citation{Lawson}
\citation{Vick}
\citation{Hatcher}
\citation{Hatcher2}
\citation{Bradley}
\@writefile{toc}{\contentsline {chapter}{\tocchapter {Chapter}{}{Preface}}{4}{chapter*.1}\protected@file@percent }
\@writefile{lof}{\addvspace {10\p@ }}
\@writefile{lot}{\addvspace {10\p@ }}
\@writefile{toc}{\contentsline {chapter}{\tocchapter {Chapter}{1}{Topological Spaces}}{5}{chapter.1}\protected@file@percent }
\@writefile{lof}{\addvspace {10\p@ }}
\@writefile{lot}{\addvspace {10\p@ }}
\@writefile{toc}{\contentsline {section}{\numberline {1}What is a topological space?}{5}{section.1.1}\protected@file@percent }
\newlabel{continuous}{{1}{5}{}{definition.1}{}}
\@writefile{lof}{\contentsline {figure}{\numberline {1}{\ignorespaces A continuous function}}{5}{figure.1.1}\protected@file@percent }
\newlabel{fig:continuous}{{1}{5}{A continuous function}{figure.1.1}{}}
\@writefile{lof}{\contentsline {figure}{\numberline {2}{\ignorespaces A function which is not continuous}}{6}{figure.1.2}\protected@file@percent }
\newlabel{fig:discontinuous}{{2}{6}{A function which is not continuous}{figure.1.2}{}}
\newlabel{rcontinuous}{{2}{6}{}{definition.2}{}}
\@writefile{lof}{\contentsline {figure}{\numberline {3}{\ignorespaces The idea of a topological space}}{7}{figure.1.3}\protected@file@percent }
\newlabel{topospace}{{3}{7}{}{definition.3}{}}
\newlabel{opensets}{{4}{7}{}{definition.4}{}}
\citation{Chen}
\citation{Lawson}
\@writefile{toc}{\contentsline {section}{\numberline {2}Examples of Topological Spaces}{9}{section.1.2}\protected@file@percent }
\citation{ReedandSimon}
\@writefile{lof}{\contentsline {figure}{\numberline {4}{\ignorespaces The red topology is finer than the green topology. Every set which is open in the green topology is open in the red topology, but there are some sets which are open in red but not in green.}}{10}{figure.1.4}\protected@file@percent }
\newlabel{fig:finer}{{4}{10}{The red topology is finer than the green topology. Every set which is open in the green topology is open in the red topology, but there are some sets which are open in red but not in green}{figure.1.4}{}}
\citation{McCord}
\citation{Bradley}
\newlabel{fig:pseudocircle}{{2}{11}{Pseudocircle}{definition.11}{}}
\@writefile{lof}{\contentsline {figure}{\numberline {5}{\ignorespaces The pseudocircle}}{11}{figure.1.5}\protected@file@percent }
\@writefile{toc}{\contentsline {section}{\numberline {3}Separation and Connectivity}{12}{section.1.3}\protected@file@percent }
\@writefile{lof}{\contentsline {figure}{\numberline {6}{\ignorespaces The Separation Axioms}}{13}{figure.1.6}\protected@file@percent }
\newlabel{fig:separation}{{6}{13}{The Separation Axioms}{figure.1.6}{}}
\@writefile{toc}{\contentsline {section}{\numberline {4}The Quotient Topology}{13}{section.1.4}\protected@file@percent }
\@writefile{toc}{\contentsline {chapter}{\tocchapter {Chapter}{2}{Homology}}{14}{chapter.2}\protected@file@percent }
\@writefile{lof}{\addvspace {10\p@ }}
\@writefile{lot}{\addvspace {10\p@ }}
\@writefile{toc}{\contentsline {section}{\numberline {1}Simplicial Homology}{14}{section.2.1}\protected@file@percent }
\@writefile{lof}{\contentsline {figure}{\numberline {1}{\ignorespaces A triangle}}{14}{figure.2.1}\protected@file@percent }
\@writefile{toc}{\contentsline {section}{\numberline {2}Singular Homology}{14}{section.2.2}\protected@file@percent }
\@writefile{toc}{\contentsline {section}{\numberline {3}CW Homology}{14}{section.2.3}\protected@file@percent }
\@writefile{toc}{\contentsline {chapter}{\tocchapter {Chapter}{3}{Forms and De Rahm Cohomology (todo)}}{15}{chapter.3}\protected@file@percent }
\@writefile{lof}{\addvspace {10\p@ }}
\@writefile{lot}{\addvspace {10\p@ }}
\@writefile{toc}{\contentsline {chapter}{\tocchapter {Chapter}{4}{Homotopy (todo)}}{16}{chapter.4}\protected@file@percent }
\@writefile{lof}{\addvspace {10\p@ }}
\@writefile{lot}{\addvspace {10\p@ }}
\@writefile{toc}{\contentsline {section}{\numberline {1}The Fundamental Group: The First Homotopy Group}{16}{section.4.1}\protected@file@percent }
\@writefile{toc}{\contentsline {chapter}{\tocchapter {Chapter}{}{Appendix on Category Theory}}{17}{chapter*.2}\protected@file@percent }
\@writefile{lof}{\addvspace {10\p@ }}
\@writefile{lot}{\addvspace {10\p@ }}
\@writefile{toc}{\contentsline {chapter}{\tocchapter {Chapter}{}{Appendix on Multilinear Algebra}}{18}{chapter*.3}\protected@file@percent }
\@writefile{lof}{\addvspace {10\p@ }}
\@writefile{lot}{\addvspace {10\p@ }}
\bibcite{your-cite-key}{{1}{}}
\bibcite{Barr}{{2}{}}
\bibcite{Bradley}{{3}{}}
\bibcite{Cartan}{{4}{}}
\bibcite{Chen}{{5}{}}
\bibcite{Hatcher}{{6}{}}
\bibcite{Hatcher2}{{7}{}}
\bibcite{Lang}{{8}{}}
\bibcite{Lawson}{{9}{}}
\bibcite{McCord}{{10}{}}
\bibcite{ReedandSimon}{{11}{}}
\bibcite{Vick}{{12}{}}
\newlabel{[bibenv:1]}{14.99399pt}
\newlabel{tocindent-1}{0pt}
\newlabel{tocindent0}{61.68124pt}
\newlabel{tocindent1}{0pt}
\newlabel{tocindent2}{0pt}
\newlabel{tocindent3}{0pt}
\@writefile{toc}{\contentsline {chapter}{\tocchapter {Chapter}{}{Bibliography}}{19}{chapter*.4}\protected@file@percent }
\@writefile{lof}{\addvspace {10\p@ }}
\@writefile{lot}{\addvspace {10\p@ }}
